{
  "project_info": {
    "project_number": "993750535407",
    "project_id": "event-application-177706"
  },
  "client": [
    {
      "client_info": {
        "mobilesdk_app_id": "1:993750535407:android:52d89a2e2bf76941",
        "android_client_info": {
          "package_name": "com.emts.leyline"
        }
      },
      "oauth_client": [
        {
          "client_id": "993750535407-ud7tfi7d6djvh5v5v5juif7i4hadinus.apps.googleusercontent.com",
          "client_type": 3
        },
        {
          "client_id": "993750535407-7mlahmublc2i3u9aktesudpedutb3h6s.apps.googleusercontent.com",
          "client_type": 1,
          "android_info": {
            "package_name": "com.emts.leyline",
            "certificate_hash": "4e8ae0b5dff72b11aa98cd14e99f2bee179c1807"
          }
        }
      ],
      "api_key": [
        {
          "current_key": "AIzaSyDXmNyiSZ6KygmZFB0x1HnsAkQhOUU2-vM"
        }
      ],
      "services": {
        "analytics_service": {
          "status": 1
        },
        "appinvite_service": {
          "status": 1,
          "other_platform_oauth_client": []
        },
        "ads_service": {
          "status": 1
        }
      }
    }
  ],
  "configuration_version": "1"
}